{
	"configurations" : 
	[
		{
			"directories" : 
			[
				{
					"build" : ".",
					"childIndexes" : 
					[
						1
					],
					"jsonFile" : "directory-.-RelWithDebInfo-d0094a50bb2071803777.json",
					"minimumCMakeVersion" : 
					{
						"string" : "3.6.0"
					},
					"projectIndex" : 0,
					"source" : "."
				},
				{
					"build" : "FramePacing",
					"jsonFile" : "directory-FramePacing-RelWithDebInfo-7f9c8865fd027a154c90.json",
					"minimumCMakeVersion" : 
					{
						"string" : "3.4.1"
					},
					"parentIndex" : 0,
					"projectIndex" : 1,
					"source" : "FramePacing",
					"targetIndexes" : 
					[
						0
					]
				}
			],
			"name" : "RelWithDebInfo",
			"projects" : 
			[
				{
					"childIndexes" : 
					[
						1
					],
					"directoryIndexes" : 
					[
						0
					],
					"name" : "Unity"
				},
				{
					"directoryIndexes" : 
					[
						1
					],
					"name" : "swappywrapper",
					"parentIndex" : 0,
					"targetIndexes" : 
					[
						0
					]
				}
			],
			"targets" : 
			[
				{
					"directoryIndex" : 1,
					"id" : "swappywrapper::@7e25bd1f32ce224db4e9",
					"jsonFile" : "target-swappywrapper-RelWithDebInfo-acecfbd18cfc157fb839.json",
					"name" : "swappywrapper",
					"projectIndex" : 1
				}
			]
		}
	],
	"kind" : "codemodel",
	"paths" : 
	{
		"build" : "D:/2Dragon/Dingdong/.utmp/RelWithDebInfo/4245p4e4/armeabi-v7a",
		"source" : "D:/2Dragon/Dingdong/Library/Bee/Android/Prj/Mono2x/Gradle/unityLibrary/src/main/cpp"
	},
	"version" : 
	{
		"major" : 2,
		"minor" : 3
	}
}
