Library\Bee\artifacts\mvdfrm\UnityEngine.UI.ref.dll_AFC2E85BC2EDBC0B.mvfrm
Library\Bee\artifacts\mvdfrm\UnityEngine.AccessibilityModule.dll_490BE9B4624D4434.mvfrm
Library\Bee\artifacts\mvdfrm\UnityEngine.AIModule.dll_5CE8346FE804D606.mvfrm
Library\Bee\artifacts\mvdfrm\UnityEngine.AndroidJNIModule.dll_AA6FC37866B89EC4.mvfrm
Library\Bee\artifacts\mvdfrm\UnityEngine.AnimationModule.dll_80E52F96E8C7F5DA.mvfrm
Library\Bee\artifacts\mvdfrm\UnityEngine.ARModule.dll_165AF973452234CF.mvfrm
Library\Bee\artifacts\mvdfrm\UnityEngine.AssetBundleModule.dll_F7CE736BCC88AC48.mvfrm
Library\Bee\artifacts\mvdfrm\UnityEngine.AudioModule.dll_CB52183BF5F1504C.mvfrm
Library\Bee\artifacts\mvdfrm\UnityEngine.ClothModule.dll_323A7536D00E2F30.mvfrm
Library\Bee\artifacts\mvdfrm\UnityEngine.CommandStateObserverModule.dll_386B32D478253FAA.mvfrm
Library\Bee\artifacts\mvdfrm\UnityEngine.ContentLoadModule.dll_90E4CCAC9B0B5435.mvfrm
Library\Bee\artifacts\mvdfrm\UnityEngine.CoreModule.dll_D25D942CCDE63D1D.mvfrm
Library\Bee\artifacts\mvdfrm\UnityEngine.CrashReportingModule.dll_39439B76C121A4D5.mvfrm
Library\Bee\artifacts\mvdfrm\UnityEngine.DirectorModule.dll_777E323B3A4E6A7A.mvfrm
Library\Bee\artifacts\mvdfrm\UnityEngine.dll_3659D06EF1A201E8.mvfrm
Library\Bee\artifacts\mvdfrm\UnityEngine.DSPGraphModule.dll_7CCF93A4ACAF3B9B.mvfrm
Library\Bee\artifacts\mvdfrm\UnityEngine.GameCenterModule.dll_D4BD0D932CF98FB5.mvfrm
Library\Bee\artifacts\mvdfrm\UnityEngine.GIModule.dll_F5247D7D83B3BE20.mvfrm
Library\Bee\artifacts\mvdfrm\UnityEngine.GraphToolsFoundationModule.dll_0B1A4C83AADF24FE.mvfrm
Library\Bee\artifacts\mvdfrm\UnityEngine.GridModule.dll_AFCEB01AE63AD314.mvfrm
Library\Bee\artifacts\mvdfrm\UnityEngine.HotReloadModule.dll_022DED9CC3FB115C.mvfrm
Library\Bee\artifacts\mvdfrm\UnityEngine.ImageConversionModule.dll_B5237EEFA6F9C1E7.mvfrm
Library\Bee\artifacts\mvdfrm\UnityEngine.IMGUIModule.dll_03B1B7A2BC22E42D.mvfrm
Library\Bee\artifacts\mvdfrm\UnityEngine.InputLegacyModule.dll_89138E8A647A6239.mvfrm
Library\Bee\artifacts\mvdfrm\UnityEngine.InputModule.dll_31C7DFEC6C2974F0.mvfrm
Library\Bee\artifacts\mvdfrm\UnityEngine.JSONSerializeModule.dll_A92372F06188A4BE.mvfrm
Library\Bee\artifacts\mvdfrm\UnityEngine.LocalizationModule.dll_CCAE733DE1F03F67.mvfrm
Library\Bee\artifacts\mvdfrm\UnityEngine.MarshallingModule.dll_A0371200B0B0D99A.mvfrm
Library\Bee\artifacts\mvdfrm\UnityEngine.ParticleSystemModule.dll_8C55E4C32F333063.mvfrm
Library\Bee\artifacts\mvdfrm\UnityEngine.PerformanceReportingModule.dll_59B7B0654A982EDC.mvfrm
Library\Bee\artifacts\mvdfrm\UnityEngine.Physics2DModule.dll_CD8B1F8789C4ED6F.mvfrm
Library\Bee\artifacts\mvdfrm\UnityEngine.PhysicsModule.dll_B8C0822E88D33C9D.mvfrm
Library\Bee\artifacts\mvdfrm\UnityEngine.ProfilerModule.dll_A9C46B71D3A7F187.mvfrm
Library\Bee\artifacts\mvdfrm\UnityEngine.PropertiesModule.dll_01F84CD19FE4F3F1.mvfrm
Library\Bee\artifacts\mvdfrm\UnityEngine.RuntimeInitializeOnLoadManagerInitializerModule.dll_2B060D4A193FBC38.mvfrm
Library\Bee\artifacts\mvdfrm\UnityEngine.ScreenCaptureModule.dll_C30B207575F4D120.mvfrm
Library\Bee\artifacts\mvdfrm\UnityEngine.SharedInternalsModule.dll_3934BDC51E27BD37.mvfrm
Library\Bee\artifacts\mvdfrm\UnityEngine.SpriteMaskModule.dll_BDE980234E69252F.mvfrm
Library\Bee\artifacts\mvdfrm\UnityEngine.SpriteShapeModule.dll_112FA0C6822AE452.mvfrm
Library\Bee\artifacts\mvdfrm\UnityEngine.StreamingModule.dll_357A1CE7384FAD18.mvfrm
Library\Bee\artifacts\mvdfrm\UnityEngine.SubstanceModule.dll_1225313083A2AB26.mvfrm
Library\Bee\artifacts\mvdfrm\UnityEngine.SubsystemsModule.dll_2896E6851CB10D42.mvfrm
Library\Bee\artifacts\mvdfrm\UnityEngine.TerrainModule.dll_D306FD9D5E91858B.mvfrm
Library\Bee\artifacts\mvdfrm\UnityEngine.TerrainPhysicsModule.dll_8CD08D9648762AF0.mvfrm
Library\Bee\artifacts\mvdfrm\UnityEngine.TextCoreFontEngineModule.dll_DDCF4A423E3349FB.mvfrm
Library\Bee\artifacts\mvdfrm\UnityEngine.TextCoreTextEngineModule.dll_25B780B3CDB70319.mvfrm
Library\Bee\artifacts\mvdfrm\UnityEngine.TextRenderingModule.dll_EC4A92802D2C5115.mvfrm
Library\Bee\artifacts\mvdfrm\UnityEngine.TilemapModule.dll_7203651E764E6694.mvfrm
Library\Bee\artifacts\mvdfrm\UnityEngine.TLSModule.dll_4D209526B8B59E31.mvfrm
Library\Bee\artifacts\mvdfrm\UnityEngine.UIElementsModule.dll_2CD547ED1FDD4939.mvfrm
Library\Bee\artifacts\mvdfrm\UnityEngine.UIModule.dll_585BD29D444BDBB2.mvfrm
Library\Bee\artifacts\mvdfrm\UnityEngine.UmbraModule.dll_4626C4548317FBBF.mvfrm
Library\Bee\artifacts\mvdfrm\UnityEngine.UnityAnalyticsCommonModule.dll_F4F66DA96480CD3A.mvfrm
Library\Bee\artifacts\mvdfrm\UnityEngine.UnityAnalyticsModule.dll_ABF5558CDB5A825F.mvfrm
Library\Bee\artifacts\mvdfrm\UnityEngine.UnityConnectModule.dll_FC24B7E493747A53.mvfrm
Library\Bee\artifacts\mvdfrm\UnityEngine.UnityCurlModule.dll_B401D0C858DBE7C7.mvfrm
Library\Bee\artifacts\mvdfrm\UnityEngine.UnityTestProtocolModule.dll_596422B7CB84DFB5.mvfrm
Library\Bee\artifacts\mvdfrm\UnityEngine.UnityWebRequestAssetBundleModule.dll_D5D6874CADB6D470.mvfrm
Library\Bee\artifacts\mvdfrm\UnityEngine.UnityWebRequestAudioModule.dll_D1B40443D102F974.mvfrm
Library\Bee\artifacts\mvdfrm\UnityEngine.UnityWebRequestModule.dll_C6C28699B1EE5C66.mvfrm
Library\Bee\artifacts\mvdfrm\UnityEngine.UnityWebRequestTextureModule.dll_1FEC01E398BA05C9.mvfrm
Library\Bee\artifacts\mvdfrm\UnityEngine.UnityWebRequestWWWModule.dll_F079C60FBD76BF85.mvfrm
Library\Bee\artifacts\mvdfrm\UnityEngine.VehiclesModule.dll_EF412BBAB4783A15.mvfrm
Library\Bee\artifacts\mvdfrm\UnityEngine.VFXModule.dll_CDFF2D958F23079E.mvfrm
Library\Bee\artifacts\mvdfrm\UnityEngine.VideoModule.dll_F05B9CA6B8836BF1.mvfrm
Library\Bee\artifacts\mvdfrm\UnityEngine.VRModule.dll_AB2DF922E606612A.mvfrm
Library\Bee\artifacts\mvdfrm\UnityEngine.WindModule.dll_48AC6F555F1CBB86.mvfrm
Library\Bee\artifacts\mvdfrm\UnityEngine.XRModule.dll_DDECBC276F40AE88.mvfrm
Library\Bee\artifacts\mvdfrm\Unity.Collections.LowLevel.ILSupport.dll_2E40CE80E145E521.mvfrm